{
  "quartz": {
    "listen_port": "4000",
    "unassigned_source_num": 96
  },
  "sony": {
    "username": "test",
    "password": "something",
    "ip_address": "10.10.10.10"
  },
  "logging": {
    "path": "/path/to/somewhere/"
  },
  "push_top": {
    "enable": true,
    "ip_address": "10.10.10.10",
    "port": "5000"
  }
}