module magnum-rcp-control

go 1.15

require (
	github.com/bobziuchkovski/digest v0.0.0-20160204210651-26857231d60c
	github.com/fastly/go-utils v0.0.0-20180712184237-d95a45783239 // indirect
	github.com/jehiah/go-strftime v0.0.0-20171201141054-1d33003b3869 // indirect
	github.com/jonboulle/clockwork v0.2.2 // indirect
	github.com/lestrrat-go/file-rotatelogs v2.4.0+incompatible
	github.com/lestrrat-go/strftime v1.0.3 // indirect
	github.com/pkg/errors v0.9.1 // indirect
	github.com/tebeka/strftime v0.1.5 // indirect
)
